{
    "KPlugin": {
        "Authors": [
            {
                "Email": "plasma-devel@kde.org  ",
                "Name": "KDE plasma",
                "Name[az]": "KDE plasma",
                "Name[bg]": "KDE plasma",
                "Name[ca@valencia]": "Plasma de KDE",
                "Name[ca]": "Plasma del KDE",
                "Name[cs]": "KDE plasma",
                "Name[de]": "KDE Plasma",
                "Name[el]": "KDE plasma",
                "Name[en_GB]": "KDE Plasma",
                "Name[eo]": "KDE-plasma",
                "Name[es]": "KDE Plasma",
                "Name[eu]": "KDE plasma",
                "Name[fi]": "KDE Plasma",
                "Name[fr]": "KDE Plasma",
                "Name[gl]": "KDE Plasma",
                "Name[he]": "פלזמה של KDE",
                "Name[hu]": "KDE Plasma",
                "Name[ia]": "KDE Plasma",
                "Name[is]": "KDE plasma",
                "Name[it]": "KDE Plasma",
                "Name[ka]": "KDE plasma",
                "Name[ko]": "KDE Plasma",
                "Name[lt]": "KDE Plasma",
                "Name[nl]": "KDE plasma",
                "Name[nn]": "KDE Plasma",
                "Name[pl]": "Plazma KDE",
                "Name[pt]": "Plasma do KDE",
                "Name[pt_BR]": "KDE Plasma",
                "Name[ru]": "KDE plasma",
                "Name[sk]": "KDE plasma",
                "Name[sl]": "KDE plasma",
                "Name[sv]": "KDE Plasma",
                "Name[ta]": "கே.டீ.யீ. பிளாஸ்மா",
                "Name[tr]": "KDE Plasma",
                "Name[uk]": "Плазма KDE",
                "Name[x-test]": "xxKDE plasmaxx",
                "Name[zh_CN]": "KDE plasma",
                "Name[zh_TW]": "KDE plasma"
            }
        ],
        "Category": "VPNService",
        "Description": "Compatible with Fortinet VPN",
        "Description[az]": "Fortinet VPN ilə uyğun SSL VPN",
        "Description[bg]": "Съвместим с Fortinet VPN",
        "Description[ca@valencia]": "VPN compatible amb Fortinet",
        "Description[ca]": "VPN compatible amb Fortinet",
        "Description[cs]": "Kompatibilní s Fortinet VPN",
        "Description[de]": "Mit Fortinet-VPN kompatibel",
        "Description[el]": "Συμβατό με Fortinet VPN",
        "Description[en_GB]": "Compatible with Fortinet VPN",
        "Description[eo]": "Kongrua kun Fortinet VPN",
        "Description[es]": "Compatible con VPN de Fortinet",
        "Description[eu]": "Fortinet VPN-rekin bateragarria",
        "Description[fi]": "Yhteensopiva Fortinetin VPN:n kanssa",
        "Description[fr]": "Compatible avec les « Fortinet VPN »",
        "Description[gl]": "Compatíbel con VPN de Fortinet.",
        "Description[he]": "תאימות ל־Cisco AnyConnect SSL VPN",
        "Description[hu]": "Kompatibilis a Fortinet VPN-nel",
        "Description[ia]": "Compatibile con Fotinet VPN",
        "Description[is]": "Samhæft við Fortinet VPN",
        "Description[it]": "Compatibile con Fortinet VPN",
        "Description[ka]": "Fortinet VPN-თან თავსებადი",
        "Description[ko]": "Fortinet VPN과 호환됨",
        "Description[lt]": "Suderinamas su Fortinet VPN",
        "Description[nl]": "Compatibel met Fortinet VPN",
        "Description[nn]": "Kompatibel med Fortinet VPN",
        "Description[pl]": "VPN zgodny z Fortinet",
        "Description[pt]": "Compatível com a VPN da Fortinet",
        "Description[pt_BR]": "Compatível com a VPN Fortinet por SSL",
        "Description[ru]": "Совместимая с Fortinet VPN c SSL",
        "Description[sk]": "Kompatibilné s CPAN GlobalProtect SSL VPN",
        "Description[sl]": "Združljiv s Fortinet VPN",
        "Description[sv]": "Kompatibel med Fortinet VPN",
        "Description[tr]": "Fortinet VPN ile uyumlu",
        "Description[uk]": "Сумісний із VPN Fortinet",
        "Description[x-test]": "xxCompatible with Fortinet VPNxx",
        "Description[zh_CN]": "兼容 Fortinet VPN ",
        "Description[zh_TW]": "與 Fortinet VPN 相容",
        "EnabledByDefault": false,
        "Icon": "",
        "License": "GPL",
        "Name": "Fortinet Compatible VPN (openconnect)",
        "Name[az]": "Fortinet ilə uyğun VPN (openconnect)",
        "Name[bg]": "Fortinet съвместим VPN (openconnect)",
        "Name[ca@valencia]": "VPN compatible amb Fortinet (openconnect)",
        "Name[ca]": "VPN compatible amb Fortinet (openconnect)",
        "Name[cs]": "VPN kompatibilní s Fortinet (openconnect)",
        "Name[de]": "VPN kompatibel mit Fortinet (openconnect)",
        "Name[el]": "VPN συμβατό με Fortinet (openconnect)",
        "Name[en_GB]": "Fortinet Compatible VPN (openconnect)",
        "Name[eo]": "Fortinet Kongrua VPN (malferma konekto)",
        "Name[es]": "VPN compatible con Fortinet (openconnect)",
        "Name[eu]": "Fortinet-ekin bateragarria den VPN (openconnect)",
        "Name[fi]": "Fortinet-yhteensopiva VPN (openconnect)",
        "Name[fr]": "VPN compatible Fortinet (openconnect)",
        "Name[gl]": "VPN compatíbel con Fortinet (openconnect)",
        "Name[he]": "VPN תואם Fortinet‏ (openconnect)",
        "Name[hu]": "Fortinet kompatibilis VPN (openconnect)",
        "Name[ia]": "Fortinet Compatible VPN (openconnect)",
        "Name[is]": "Fortinet-samhæft VPN (openconnect)",
        "Name[it]": "VPN compatibile Fortinet (openconnect)",
        "Name[ka]": "Fortinet -თან თავსებადი VPN (openconnect)",
        "Name[ko]": "Fortinet 호환 VPN(openconnect)",
        "Name[lt]": "Fortinet suderinamas VPN (openconnect)",
        "Name[nl]": "Fortinet compatibele VPN (openconnect)",
        "Name[nn]": "Fortinet-kompatibel VPN (openconnect)",
        "Name[pl]": "VPN zgodny z Fortinet (openconnect)",
        "Name[pt]": "VPN Compatível com a Fortinet (openconnect)",
        "Name[pt_BR]": "VPN compatível com Fortinet (openconnect)",
        "Name[ru]": "Совместимая с Fortinet VPN (openconnect)",
        "Name[sk]": "VPN kompatibilná s Cisco AnyConnect (openconnect)",
        "Name[sl]": "Fortinet združljiv VPN (openconnect)",
        "Name[sv]": "Fortinet-kompatibel VPN (openconnect)",
        "Name[tr]": "Fortinet Uyumlu VPN (openconnect)",
        "Name[uk]": "VPN, сумісний з Fortinet (openconnect)",
        "Name[x-test]": "xxFortinet Compatible VPN (openconnect)xx",
        "Name[zh_CN]": "Fortinet 兼容 VPN (openconnect)",
        "Name[zh_TW]": "與 Fortinet 相容的 VPN (openconnect)",
        "Version": "0.1",
        "Website": ""
    },
    "X-NetworkManager-Services": "org.freedesktop.NetworkManager.openconnect",
    "X-NetworkManager-Services-Subtype": "anyconnect"
}
